simul0710/simul0710.sim/sim_1/behav/xsim/simulate.log
Time resolution is 1 ps
t=0 x=0 -> y=0
t=1 x=1 -> y=2
t=2 x=2 -> y=6
t=3 x=3 -> y=12
t=4 x=4 -> y=20
t=0 x=0 -> y=0
t=1 x=1 -> y=2
t=2 x=2 -> y=6
t=3 x=3 -> y=12
t=4 x=4 -> y=20
t=5 x=5 -> y=30
t=6 x=6 -> y=38
t=7 x=7 -> y=44
t=8 x=8 -> y=48
t=9 x=9 -> y=50
t=10 x=10 -> y=50
t=11 x=11 -> y=50
t=12 x=12 -> y=50
t=13 x=13 -> y=50
t=14 x=14 -> y=50
t=15 x=15 -> y=50
t=16 x=16 -> y=50
t=17 x=17 -> y=50
t=18 x=18 -> y=50
t=19 x=19 -> y=50
t=20 x=20 -> y=50
t=21 x=21 -> y=50
t=22 x=22 -> y=50
t=23 x=23 -> y=50
t=24 x=24 -> y=50
t=25 x=25 -> y=50
t=26 x=26 -> y=50
t=27 x=27 -> y=50
t=28 x=28 -> y=50
t=29 x=29 -> y=50
t=30 x=30 -> y=50
t=31 x=31 -> y=50
$finish called at time : 4745 ns : File "C:/Vivado_HLS_Tutorial/Introduction/lab2/simul0710/simul0710.srcs/sim_1/new/tb_axi_fir.v" Line 160
